mur mur mur 0 mur mur mur mur
mur 0 0 0 0 0 0 mur
mur 0 0 0 tablefer_h tablefer_h 0 mur
mur 0 plante 0 0 canape_2_gauche 0 mur
mur 0 0 0 0 canape_1_gauche 0 mur
mur 0 0 0 0 0 0 mur
mur 0 0 0 0 0 0 mur
mur 0 bureau_livre bureau_ordi 0 0 0 portev 
mur 0 0 0 0 0 0 mur
mur mur mur mur mur mur mur mur
