mur mur mur mur mur mur mur mur mur mur
mur 0 0 0 0 0 0 0 0 mur
mur 0 0 0 0 0 0 0 0 mur
mur 0 0 fauteil_haut canape_2_haut canape_1_haut fauteil_haut 0 0 mur
mur 0 0 0 0 0 0 0 0 mur
mur 0 0 0 0 0 fauteil_gauche 0 0 mur
mur 0 plante2_3 plante2_4 0 0 fauteil_gauche 0 0 mur
mur 0 plante2_1 plante2_2 0 0 0 0 0 mur
mur 0 0 0 0 0 0 plante 0 mur
mur 0 0 0 0 0 0 0 0 mur
mur 0 0 bureau_livre bureau_ordi 0 0 0 0 mur
mur 0 0 0 0 0 0 0 0 mur
mur 0 0 0 0 0 0 0 0 mur
mur mur mur mur mur mur mur porteh mur mur
